{
  "content": [
    {
      "id": "cea8e60c-e35e-475c-ae44-183a192b70fe",
      "title": "CRYFEST: THE CURE vs. THE SMITHS DANCE PARTY",
      "slug": "cryfest-the-cure-vs-the-smiths-dance-party-black-cat-2026-02-21",
      "startTime": "2026-02-21T05:00:00Z",
      "doorsTime": null,
      "venue": {
        "id": "63a18466-0a0f-4985-ae4c-503890448a15",
        "name": "Black Cat",
        "slug": "black-cat",
        "neighborhood": "U Street",
        "websiteUrl": "https://www.blackcatdc.com",
        "upcomingEventCount": 0
      },
      "artists": [],
      "minPrice": null,
      "maxPrice": null,
      "priceTier": null,
      "ticketUrl": "https://www.etix.com/ticket/p/73061337/cryfest--the-cure-vs--the-smiths-dance-party",
      "soldOut": false,
      "imageUrl": "https://www.blackcatdc.com/images/460/cryfest.jpg",
      "ageRestriction": "ALL_AGES",
      "status": "ACTIVE"
    },
    {
      "id": "b3b8f9d6-561a-4de8-84fd-1caa87c9cfee",
      "title": "Sadness / Oldest Sea / Witch's Mirror",
      "slug": "sadness-oldest-sea-witch-s-mirror-rhizome-dc-2026-02-23",
      "startTime": "2026-02-23T05:00:00Z",
      "doorsTime": null,
      "venue": {
        "id": "ec122fc7-32ea-43a7-8840-5d9a0f26af4b",
        "name": "Rhizome DC",
        "slug": "rhizome-dc",
        "neighborhood": "Takoma",
        "websiteUrl": "https://www.rhizomedc.org",
        "upcomingEventCount": 0
      },
      "artists": [
        {
          "id": "9b104792-1559-4962-bac6-4c4fa6bc048b",
          "name": "Oldest Sea",
          "slug": "oldest-sea",
          "genres": [],
          "isLocal": false,
          "spotifyUrl": null,
          "bandcampUrl": null,
          "instagramUrl": null,
          "canonicalName": null,
          "imageUrl": null
        },
        {
          "id": "25902764-b42f-4c76-a967-d43ad6fadcb6",
          "name": "Witch's Mirror",
          "slug": "witch-s-mirror",
          "genres": [],
          "isLocal": false,
          "spotifyUrl": null,
          "bandcampUrl": null,
          "instagramUrl": null,
          "canonicalName": null,
          "imageUrl": null
        },
        {
          "id": "ad4e7c8f-69c4-4d59-a5a9-bf51c2185f23",
          "name": "Sadness",
          "slug": "sadness",
          "genres": [],
          "isLocal": false,
          "spotifyUrl": null,
          "bandcampUrl": null,
          "instagramUrl": null,
          "canonicalName": null,
          "imageUrl": null
        }
      ],
      "minPrice": 15,
      "maxPrice": 25,
      "priceTier": "PRICE_15_TO_30",
      "ticketUrl": "https://withfriends.events/event/lsKIQ7J2/",
      "soldOut": false,
      "imageUrl": "https://images.squarespace-cdn.com/content/v1/54f7644de4b0b5b2f2b652f0/7955a6de-de81-402a-827b-34f2bf44908d/WM_OS_Sadness.jpg",
      "ageRestriction": "ALL_AGES",
      "status": "ACTIVE"
    },
    {
      "id": "37a2ed74-2082-4e36-9bfe-21283334d212",
      "title": "Clinton Kane - 4350 Live",
      "slug": "clinton-kane-4350-live-the-atlantis-2026-02-24",
      "startTime": "2026-02-24T23:30:00Z",
      "doorsTime": null,
      "venue": {
        "id": "9af300f7-3a99-4b56-8c34-df26f56680f3",
        "name": "The Atlantis",
        "slug": "the-atlantis",
        "neighborhood": "U Street",
        "websiteUrl": "https://www.atlantisdc.com",
        "upcomingEventCount": 0
      },
      "artists": [],
      "minPrice": null,
      "maxPrice": null,
      "priceTier": null,
      "ticketUrl": "https://www.ticketmaster.com/clinton-kane-4350-live-washington-district-of-columbia-02-24-2026/event/15006382B7208FFB",
      "soldOut": false,
      "imageUrl": "https://s1.ticketm.net/dam/a/971/73b026ea-564d-4b5a-ad10-a5f97b4d5971_RECOMENDATION_16_9.jpg",
      "ageRestriction": "ALL_AGES",
      "status": "ACTIVE"
    },
    {
      "id": "9bf99091-a180-429d-a9b2-af4c46b9b2e4",
      "title": "Peter McPoland: Big Lucky Tour",
      "slug": "peter-mcpoland-big-lucky-tour-9-30-club-2026-02-25",
      "startTime": "2026-02-25T00:00:00Z",
      "doorsTime": null,
      "venue": {
        "id": "44548917-403e-4e01-a992-8bcb5166f43b",
        "name": "9:30 Club",
        "slug": "9-30-club",
        "neighborhood": "U Street",
        "websiteUrl": "https://www.930.com",
        "upcomingEventCount": 0
      },
      "artists": [],
      "minPrice": null,
      "maxPrice": null,
      "priceTier": null,
      "ticketUrl": "https://www.ticketmaster.com/peter-mcpoland-big-lucky-tour-washington-district-of-columbia-02-24-2026/event/15006313902A1CEA",
      "soldOut": false,
      "imageUrl": "https://s1.ticketm.net/dam/a/95d/a0aa9741-d70b-4473-a69e-4cfb35d6a95d_EVENT_DETAIL_PAGE_16_9.jpg",
      "ageRestriction": "ALL_AGES",
      "status": "ACTIVE"
    },
    {
      "id": "133000fb-3856-4eb3-91a8-059373dc18ca",
      "title": "The Pocket Open Mic",
      "slug": "the-pocket-open-mic-the-pocket-7-drum-city-2026-02-25",
      "startTime": "2026-02-25T00:30:00Z",
      "doorsTime": null,
      "venue": {
        "id": "17583345-6325-4da3-816b-f36a9a4356af",
        "name": "The Pocket (7 Drum City)",
        "slug": "7-drum-city",
        "neighborhood": "Ivy City",
        "websiteUrl": "https://thepocket.7drumcity.com",
        "upcomingEventCount": 0
      },
      "artists": [],
      "minPrice": null,
      "maxPrice": null,
      "priceTier": null,
      "ticketUrl": null,
      "soldOut": false,
      "imageUrl": "https://cdn.prod.website-files.com/68f7f3b0278e59da834ae22b/691632ac57504f410ec70ff5_open-uri20251113-13-j8x4ew.jpeg",
      "ageRestriction": "ALL_AGES",
      "status": "ACTIVE"
    },
    {
      "id": "4e7186f5-ca9b-435f-a7ae-b279f78621dd",
      "title": "Hanumankind",
      "slug": "hanumankind-howard-theatre-dc-2026-02-25",
      "startTime": "2026-02-25T01:00:00Z",
      "doorsTime": null,
      "venue": null,
      "artists": [],
      "minPrice": null,
      "maxPrice": null,
      "priceTier": null,
      "ticketUrl": "https://www.ticketmaster.com/event/Z7r9jZ1A7O7Ao",
      "soldOut": false,
      "imageUrl": "https://s1.ticketm.net/dam/a/01a/8f8d03f7-42df-4f6d-904c-8bb5be26501a_TABLET_LANDSCAPE_3_2.jpg",
      "ageRestriction": "ALL_AGES",
      "status": "ACTIVE"
    },
    {
      "id": "9da2af37-4dbd-45b5-b8cc-1d14b7b1e940",
      "title": "Hanumankind – OTW Tour: North America 2026",
      "slug": "hanumankind-otw-tour-north-america-2026-howard-theatre-2026-02-25",
      "startTime": "2026-02-25T01:00:00Z",
      "doorsTime": null,
      "venue": {
        "id": "cbd6ce9a-28a5-4296-b240-f56076cc262f",
        "name": "The Howard Theatre",
        "slug": "howard-theatre",
        "neighborhood": "Shaw",
        "websiteUrl": "https://www.thehowardtheatre.com",
        "upcomingEventCount": 0
      },
      "artists": [],
      "minPrice": 44.47,
      "maxPrice": 72.28,
      "priceTier": "OVER_30",
      "ticketUrl": "https://www.ticketweb.com/event/hanumankind-otw-tour-north-howard-theatre-tickets/14623033",
      "soldOut": false,
      "imageUrl": "https://s1.ticketm.net/dam/a/01a/8f8d03f7-42df-4f6d-904c-8bb5be26501a_TABLET_LANDSCAPE_3_2.jpg",
      "ageRestriction": "ALL_AGES",
      "status": "ACTIVE"
    },
    {
      "id": "00d8609b-614c-4a8e-8998-b8512a7053e9",
      "title": "Poems & Postcards w/ Anna Lena Phillips Bell, Hannah Louise Poston, and SEND WORD",
      "slug": "poems-postcards-w-anna-lena-phillips-bell-hannah-louise-poston-and-send-word-rhizome-dc-2026-02-25",
      "startTime": "2026-02-25T05:00:00Z",
      "doorsTime": null,
      "venue": {
        "id": "ec122fc7-32ea-43a7-8840-5d9a0f26af4b",
        "name": "Rhizome DC",
        "slug": "rhizome-dc",
        "neighborhood": "Takoma",
        "websiteUrl": "https://www.rhizomedc.org",
        "upcomingEventCount": 0
      },
      "artists": [
        {
          "id": "f5a0b424-73d4-413d-8fec-70295be1d159",
          "name": "Hannah Louise Poston",
          "slug": "hannah-louise-poston",
          "genres": [],
          "isLocal": false,
          "spotifyUrl": null,
          "bandcampUrl": null,
          "instagramUrl": null,
          "canonicalName": null,
          "imageUrl": null
        },
        {
          "id": "ff833cda-e147-4640-9acb-1bf59a886ca3",
          "name": "SEND WORD",
          "slug": "send-word",
          "genres": [],
          "isLocal": false,
          "spotifyUrl": null,
          "bandcampUrl": null,
          "instagramUrl": null,
          "canonicalName": null,
          "imageUrl": null
        },
        {
          "id": "5c5517ce-f24b-45c1-9742-b28cb7f3ab69",
          "name": "Anna Lena Phillips Bell",
          "slug": "anna-lena-phillips-bell",
          "genres": [],
          "isLocal": false,
          "spotifyUrl": null,
          "bandcampUrl": null,
          "instagramUrl": null,
          "canonicalName": null,
          "imageUrl": null
        },
        {
          "id": "92b98e7e-3439-4a33-a42b-767f59a4a66f",
          "name": "Poems & Postcards",
          "slug": "poems-postcards",
          "genres": [],
          "isLocal": false,
          "spotifyUrl": null,
          "bandcampUrl": null,
          "instagramUrl": null,
          "canonicalName": null,
          "imageUrl": null
        }
      ],
      "minPrice": null,
      "maxPrice": null,
      "priceTier": null,
      "ticketUrl": "https://withfriends.events/event/dNQLU3Xp/",
      "soldOut": false,
      "imageUrl": "https://images.squarespace-cdn.com/content/v1/54f7644de4b0b5b2f2b652f0/c2e9af5e-eeba-411f-8554-a8d1647b76a1/SEND+WORD.png",
      "ageRestriction": "ALL_AGES",
      "status": "ACTIVE"
    },
    {
      "id": "64ac0e77-5fde-408a-a3aa-a90d10e749b0",
      "title": "Online Dream Cafe",
      "slug": "online-dream-cafe-rhizome-dc-2026-02-25",
      "startTime": "2026-02-25T05:00:00Z",
      "doorsTime": null,
      "venue": {
        "id": "ec122fc7-32ea-43a7-8840-5d9a0f26af4b",
        "name": "Rhizome DC",
        "slug": "rhizome-dc",
        "neighborhood": "Takoma",
        "websiteUrl": "https://www.rhizomedc.org",
        "upcomingEventCount": 0
      },
      "artists": [],
      "minPrice": null,
      "maxPrice": null,
      "priceTier": null,
      "ticketUrl": "https://withfriends.events/event/kEySiy0A/",
      "soldOut": false,
      "imageUrl": "https://images.squarespace-cdn.com/content/v1/54f7644de4b0b5b2f2b652f0/1585690176587-5YG4YVF44D9DUJJ5JLM4/sluggo_dreaming+copy+2.jpg",
      "ageRestriction": "ALL_AGES",
      "status": "ACTIVE"
    },
    {
      "id": "5aa54a76-6167-4a23-b97d-a25cbf01026d",
      "title": "Wayne Horvitz & Sarah Schoenbeck Duo plus Trio with Anthony Pirog",
      "slug": "wayne-horvitz-sarah-schoenbeck-duo-plus-trio-with-anthony-pirog-rhizome-dc-2026-02-26",
      "startTime": "2026-02-26T05:00:00Z",
      "doorsTime": null,
      "venue": {
        "id": "ec122fc7-32ea-43a7-8840-5d9a0f26af4b",
        "name": "Rhizome DC",
        "slug": "rhizome-dc",
        "neighborhood": "Takoma",
        "websiteUrl": "https://www.rhizomedc.org",
        "upcomingEventCount": 0
      },
      "artists": [
        {
          "id": "96679194-c1d9-412e-996b-a7a48b71f754",
          "name": "Wayne Horvitz & Sarah Schoenbeck Duo plus Trio",
          "slug": "wayne-horvitz-sarah-schoenbeck-duo-plus-trio",
          "genres": [],
          "isLocal": false,
          "spotifyUrl": null,
          "bandcampUrl": null,
          "instagramUrl": null,
          "canonicalName": null,
          "imageUrl": null
        },
        {
          "id": "8410fded-018c-41d1-93f4-9cdb9de28c7e",
          "name": "Anthony Pirog",
          "slug": "anthony-pirog",
          "genres": [],
          "isLocal": false,
          "spotifyUrl": null,
          "bandcampUrl": null,
          "instagramUrl": null,
          "canonicalName": null,
          "imageUrl": null
        }
      ],
      "minPrice": 15,
      "maxPrice": 25,
      "priceTier": "PRICE_15_TO_30",
      "ticketUrl": "https://withfriends.events/event/NMpUV7iQ/",
      "soldOut": false,
      "imageUrl": "https://images.squarespace-cdn.com/content/v1/54f7644de4b0b5b2f2b652f0/1767378570361-F72QPH5519F0DOHWAUGK/b62783b5643e43453da1b3a5a1a434b3a.jpg",
      "ageRestriction": "ALL_AGES",
      "status": "ACTIVE"
    },
    {
      "id": "b566a1ca-79c6-4728-9d98-7f7254b7cf3b",
      "title": "Jake Owen",
      "slug": "jake-owen-the-atlantis-2026-02-26",
      "startTime": "2026-02-26T23:30:00Z",
      "doorsTime": null,
      "venue": {
        "id": "9af300f7-3a99-4b56-8c34-df26f56680f3",
        "name": "The Atlantis",
        "slug": "the-atlantis",
        "neighborhood": "U Street",
        "websiteUrl": "https://www.atlantisdc.com",
        "upcomingEventCount": 0
      },
      "artists": [],
      "minPrice": null,
      "maxPrice": null,
      "priceTier": null,
      "ticketUrl": "https://www.ticketmaster.com/jake-owen-washington-district-of-columbia-02-26-2026/event/15006382DC91B14A",
      "soldOut": false,
      "imageUrl": "https://s1.ticketm.net/dam/a/954/187fcb45-8fb5-4fd0-9c15-149606226954_CUSTOM.jpg",
      "ageRestriction": "ALL_AGES",
      "status": "ACTIVE"
    },
    {
      "id": "d60317ae-afb0-43f9-bab9-746464dcfee4",
      "title": "Maggie Lindemann",
      "slug": "maggie-lindemann-9-30-club-2026-02-27",
      "startTime": "2026-02-27T00:00:00Z",
      "doorsTime": null,
      "venue": {
        "id": "44548917-403e-4e01-a992-8bcb5166f43b",
        "name": "9:30 Club",
        "slug": "9-30-club",
        "neighborhood": "U Street",
        "websiteUrl": "https://www.930.com",
        "upcomingEventCount": 0
      },
      "artists": [],
      "minPrice": null,
      "maxPrice": null,
      "priceTier": null,
      "ticketUrl": "https://www.ticketmaster.com/maggie-lindemann-washington-district-of-columbia-02-26-2026/event/15006332B3D13F9E",
      "soldOut": false,
      "imageUrl": "https://s1.ticketm.net/dam/a/21a/88242cf7-99c1-4930-b2aa-017fd214021a_RETINA_PORTRAIT_16_9.jpg",
      "ageRestriction": "ALL_AGES",
      "status": "ACTIVE"
    },
    {
      "id": "415bb738-8774-46cf-a2bb-96d3917817c2",
      "title": "242",
      "slug": "242-the-pocket-7-drum-city-2026-02-27",
      "startTime": "2026-02-27T01:00:00Z",
      "doorsTime": null,
      "venue": {
        "id": "17583345-6325-4da3-816b-f36a9a4356af",
        "name": "The Pocket (7 Drum City)",
        "slug": "7-drum-city",
        "neighborhood": "Ivy City",
        "websiteUrl": "https://thepocket.7drumcity.com",
        "upcomingEventCount": 0
      },
      "artists": [
        {
          "id": "86ce99d4-4751-4a60-81c4-77a3d12700bd",
          "name": "Chipelo",
          "slug": "chipelo",
          "genres": [],
          "isLocal": false,
          "spotifyUrl": null,
          "bandcampUrl": null,
          "instagramUrl": null,
          "canonicalName": null,
          "imageUrl": null
        }
      ],
      "minPrice": null,
      "maxPrice": null,
      "priceTier": null,
      "ticketUrl": null,
      "soldOut": false,
      "imageUrl": "https://cdn.prod.website-files.com/68f7f3b0278e59da834ae22b/6994d0f9328d54dc27bce5a0_IMG_9281.jpeg",
      "ageRestriction": "ALL_AGES",
      "status": "ACTIVE"
    },
    {
      "id": "e21d1fcd-b6d3-4928-b291-6d553f2d5963",
      "title": "HEATED RIVALRY",
      "slug": "heated-rivalry-black-cat-2026-02-27",
      "startTime": "2026-02-27T05:00:00Z",
      "doorsTime": null,
      "venue": {
        "id": "63a18466-0a0f-4985-ae4c-503890448a15",
        "name": "Black Cat",
        "slug": "black-cat",
        "neighborhood": "U Street",
        "websiteUrl": "https://www.blackcatdc.com",
        "upcomingEventCount": 0
      },
      "artists": [],
      "minPrice": null,
      "maxPrice": null,
      "priceTier": null,
      "ticketUrl": "https://www.etix.com/ticket/p/76548468/heated-rivalry--a-jockstar-rave",
      "soldOut": false,
      "imageUrl": "https://www.blackcatdc.com/images/460/heated-rivalry.jpg",
      "ageRestriction": "ALL_AGES",
      "status": "ACTIVE"
    },
    {
      "id": "d931b7a8-1c6d-4bbb-a37c-5a4ef9a82aae",
      "title": "Seikilos / Lagoon / Sesiba / Chunder",
      "slug": "seikilos-lagoon-sesiba-chunder-rhizome-dc-2026-02-27",
      "startTime": "2026-02-27T05:00:00Z",
      "doorsTime": null,
      "venue": {
        "id": "ec122fc7-32ea-43a7-8840-5d9a0f26af4b",
        "name": "Rhizome DC",
        "slug": "rhizome-dc",
        "neighborhood": "Takoma",
        "websiteUrl": "https://www.rhizomedc.org",
        "upcomingEventCount": 0
      },
      "artists": [
        {
          "id": "aaba78be-a4a5-4b02-9350-c4d226839921",
          "name": "Chunder",
          "slug": "chunder",
          "genres": [],
          "isLocal": false,
          "spotifyUrl": null,
          "bandcampUrl": null,
          "instagramUrl": null,
          "canonicalName": null,
          "imageUrl": null
        },
        {
          "id": "62434342-5666-41bb-b12b-83c1152e17a7",
          "name": "Seikilos",
          "slug": "seikilos",
          "genres": [],
          "isLocal": false,
          "spotifyUrl": null,
          "bandcampUrl": null,
          "instagramUrl": null,
          "canonicalName": null,
          "imageUrl": null
        },
        {
          "id": "fb73ef8f-85e4-41c4-80ee-ef2d6223d10d",
          "name": "Sesiba",
          "slug": "sesiba",
          "genres": [],
          "isLocal": false,
          "spotifyUrl": null,
          "bandcampUrl": null,
          "instagramUrl": null,
          "canonicalName": null,
          "imageUrl": null
        },
        {
          "id": "52e62e4b-8183-4e87-b093-4225056ab25f",
          "name": "Lagoon",
          "slug": "lagoon",
          "genres": [],
          "isLocal": false,
          "spotifyUrl": null,
          "bandcampUrl": null,
          "instagramUrl": null,
          "canonicalName": null,
          "imageUrl": null
        }
      ],
      "minPrice": 10,
      "maxPrice": 10,
      "priceTier": "UNDER_15",
      "ticketUrl": "https://withfriends.events/event/Fdzit4wH/",
      "soldOut": false,
      "imageUrl": "https://images.squarespace-cdn.com/content/v1/54f7644de4b0b5b2f2b652f0/0d0dfb42-831e-431b-9afd-2dbd7094fa04/1000006387.jpg",
      "ageRestriction": "ALL_AGES",
      "status": "ACTIVE"
    },
    {
      "id": "ea30d8a3-3702-436d-bb12-700418ab382b",
      "title": "Spiritual Cramp",
      "slug": "spiritual-cramp-the-atlantis-2026-02-28",
      "startTime": "2026-02-28T00:30:00Z",
      "doorsTime": null,
      "venue": {
        "id": "9af300f7-3a99-4b56-8c34-df26f56680f3",
        "name": "The Atlantis",
        "slug": "the-atlantis",
        "neighborhood": "U Street",
        "websiteUrl": "https://www.atlantisdc.com",
        "upcomingEventCount": 0
      },
      "artists": [],
      "minPrice": null,
      "maxPrice": null,
      "priceTier": null,
      "ticketUrl": "https://www.ticketmaster.com/spiritual-cramp-washington-district-of-columbia-02-27-2026/event/1500630DA4614575",
      "soldOut": false,
      "imageUrl": "https://s1.ticketm.net/dam/e/22a/94fced8b-f9a7-4ee6-a262-97f33897522a_TABLET_LANDSCAPE_3_2.jpg",
      "ageRestriction": "ALL_AGES",
      "status": "ACTIVE"
    },
    {
      "id": "b0ac238e-c785-4145-8cb2-7767170e2148",
      "title": "BACKHOUSE",
      "slug": "backhouse-the-pocket-7-drum-city-2026-02-28",
      "startTime": "2026-02-28T01:00:00Z",
      "doorsTime": null,
      "venue": {
        "id": "17583345-6325-4da3-816b-f36a9a4356af",
        "name": "The Pocket (7 Drum City)",
        "slug": "7-drum-city",
        "neighborhood": "Ivy City",
        "websiteUrl": "https://thepocket.7drumcity.com",
        "upcomingEventCount": 0
      },
      "artists": [
        {
          "id": "214903b5-9336-41e2-a7ac-ffe0e7d3ee33",
          "name": "Freddy Mac",
          "slug": "freddy-mac",
          "genres": [],
          "isLocal": false,
          "spotifyUrl": null,
          "bandcampUrl": null,
          "instagramUrl": null,
          "canonicalName": null,
          "imageUrl": null
        },
        {
          "id": "c8a6ce99-aefa-464c-abef-a76399037589",
          "name": "Mend",
          "slug": "mend",
          "genres": [],
          "isLocal": false,
          "spotifyUrl": null,
          "bandcampUrl": null,
          "instagramUrl": null,
          "canonicalName": null,
          "imageUrl": null
        }
      ],
      "minPrice": null,
      "maxPrice": null,
      "priceTier": null,
      "ticketUrl": null,
      "soldOut": false,
      "imageUrl": "https://cdn.prod.website-files.com/68f7f3b0278e59da834ae22b/6973d2191520d7251f88a86c_Screenshot_2026-01-21_at_12.24.18%25E2%2580%25AFAM.jpeg",
      "ageRestriction": "ALL_AGES",
      "status": "ACTIVE"
    },
    {
      "id": "5b540df5-e9ab-4565-9a26-6473d1f49922",
      "title": "Peaches - No Lube So Rude Tour",
      "slug": "peaches-no-lube-so-rude-tour-9-30-club-2026-02-28",
      "startTime": "2026-02-28T01:00:00Z",
      "doorsTime": null,
      "venue": {
        "id": "44548917-403e-4e01-a992-8bcb5166f43b",
        "name": "9:30 Club",
        "slug": "9-30-club",
        "neighborhood": "U Street",
        "websiteUrl": "https://www.930.com",
        "upcomingEventCount": 0
      },
      "artists": [],
      "minPrice": null,
      "maxPrice": null,
      "priceTier": null,
      "ticketUrl": "https://www.ticketmaster.com/peaches-no-lube-so-rude-tour-washington-district-of-columbia-02-27-2026/event/150063488AA84DDF",
      "soldOut": false,
      "imageUrl": "https://s1.ticketm.net/dam/e/6ed/12f082ea-9d92-439c-b5dc-ee2a2a7e26ed_ARTIST_PAGE_3_2.jpg",
      "ageRestriction": "ALL_AGES",
      "status": "ACTIVE"
    },
    {
      "id": "73fb0d57-3ce9-44b3-80df-980b9b96c605",
      "title": "Boosie Badazz, TCB",
      "slug": "boosie-badazz-tcb-howard-theatre-2026-02-28",
      "startTime": "2026-02-28T01:00:00Z",
      "doorsTime": null,
      "venue": {
        "id": "cbd6ce9a-28a5-4296-b240-f56076cc262f",
        "name": "The Howard Theatre",
        "slug": "howard-theatre",
        "neighborhood": "Shaw",
        "websiteUrl": "https://www.thehowardtheatre.com",
        "upcomingEventCount": 0
      },
      "artists": [
        {
          "id": "016cb3d8-a475-4a7d-a8a8-6bc04c1fbfc5",
          "name": "Boosie Badazz",
          "slug": "boosie-badazz",
          "genres": [],
          "isLocal": false,
          "spotifyUrl": null,
          "bandcampUrl": null,
          "instagramUrl": null,
          "canonicalName": null,
          "imageUrl": null
        },
        {
          "id": "704a9546-c74f-47e8-b2ca-abcf7d568521",
          "name": "TCB",
          "slug": "tcb",
          "genres": [],
          "isLocal": false,
          "spotifyUrl": null,
          "bandcampUrl": null,
          "instagramUrl": null,
          "canonicalName": null,
          "imageUrl": null
        }
      ],
      "minPrice": 46.47,
      "maxPrice": 96.94,
      "priceTier": "OVER_30",
      "ticketUrl": "https://www.ticketweb.com/event/boosie-badazz-tcb-howard-theatre-tickets/14077744",
      "soldOut": false,
      "imageUrl": "https://s1.ticketm.net/dam/c/80b/f3cd8d24-c3ae-4fa0-b4bc-1ba99f9b380b_106091_TABLET_LANDSCAPE_3_2.jpg",
      "ageRestriction": "ALL_AGES",
      "status": "ACTIVE"
    },
    {
      "id": "8c7baebd-2d7c-49df-a1fb-a16ee0ed75a5",
      "title": "INZO - MIRRORVERSE TOUR",
      "slug": "inzo-mirrorverse-tour-echostage-2026-02-28",
      "startTime": "2026-02-28T03:00:00Z",
      "doorsTime": null,
      "venue": {
        "id": "bb164dcc-0591-4508-beb5-e3bc28a3efc8",
        "name": "Echostage",
        "slug": "echostage",
        "neighborhood": "Queens Chapel",
        "websiteUrl": "https://www.echostage.com",
        "upcomingEventCount": 0
      },
      "artists": [],
      "minPrice": null,
      "maxPrice": null,
      "priceTier": null,
      "ticketUrl": "https://www.ticketmaster.com/inzo-mirrorverse-tour-washington-district-of-columbia-02-27-2026/event/15006330BF9E43FA",
      "soldOut": false,
      "imageUrl": "https://s1.ticketm.net/dam/e/234/94976278-6a5a-4250-ad2b-08231c0ee234_CUSTOM.jpg",
      "ageRestriction": "ALL_AGES",
      "status": "ACTIVE"
    }
  ],
  "pageable": {
    "pageNumber": 0,
    "pageSize": 20,
    "sort": {
      "empty": false,
      "unsorted": false,
      "sorted": true
    },
    "offset": 0,
    "unpaged": false,
    "paged": true
  },
  "totalElements": 353,
  "totalPages": 18,
  "last": false,
  "size": 20,
  "number": 0,
  "numberOfElements": 20,
  "sort": {
    "empty": false,
    "unsorted": false,
    "sorted": true
  },
  "first": true,
  "empty": false
}